{
  "group1": {
    "name": "Group 1",
    "section": "section1",
    "stage": "stage_with_two_groups",
    "categories": [
      "category1",
      "category2"
    ],
    "label": "group::group1",
    "slack_channel": "group1",
    "engineering_managers": [
      "fake_em"
    ],
    "backend_engineering_managers": [
      "fake_be_em"
    ],
    "frontend_engineering_managers": [
      "fake_fe_em"
    ],
    "fullstack_managers": [
      "fake_fs_em"
    ],
    "product_managers": [
      "fake_pm"
    ],
    "backend_engineers": [
      "fake_be"
    ],
    "frontend_engineers": [
      "fake_fe"
    ],
    "product_designers": [
      "fake_pd"
    ],
    "extra_labels": [
      "extra-label"
    ]
  },
  "group2": {
    "name": "Group 2",
    "section": "section1",
    "stage": "stage_with_two_groups",
    "categories": [
      "category3",
      "category4"
    ],
    "label": "group::group2",
    "slack_channel": "group2",
    "triage_ops_config": {
      "ignore_templates": [
        "path/to/template"
      ],
      "default_labeling": {
        "groups": [
          1
        ],
        "projects": [
          2
        ]
      }
    }
  },
  "group3": {
    "name": "Group 3",
    "section": "section2",
    "stage": "stage_with_one_group",
    "categories": [
      "category5"
    ],
    "label": "group::group3",
    "slack_channel": "group3",
    "triage_ops_config": {
      "ignore_templates": [
        "path/to/template"
      ],
      "default_labeling": {
        "groups": [
          1
        ],
        "projects": [
          2
        ],
        "exclude_projects": [
          3
        ],
        "unknown": [
          4
        ]
      }
    }
  },
  "gdk": {
    "name": "GDK",
    "section": null,
    "stage": "engineering_productivity",
    "categories": [],
    "label": "Category:GDK",
    "extra_labels": [],
    "slack_channel": "gdk",
    "product_managers": [],
    "engineering_managers": [
      "dcroft"
    ],
    "fullstack_managers": [],
    "backend_engineering_managers": [],
    "frontend_engineering_managers": [],
    "technical_writers": [],
    "support_engineers": [],
    "backend_engineers": [],
    "frontend_engineers": [],
    "product_design_managers": [],
    "software_engineers_in_test": [],
    "product_designers": [],
    "triage_ops_config": {
      "default_labeling": {
        "projects": [
          74823
        ]
      },
      "ignore_templates": [
        "policies/template/group/merge-requests-needing-attention.yml.erb",
        "policies/template/group/team-summary.yml.erb",
        "policies/template/group/bug-prioritization.yml.erb"
      ]
    }
  },
  "engineering_productivity": {
    "name": "Engineering Productivity",
    "section": null,
    "stage": "engineering_productivity",
    "categories": [],
    "label": "Engineering Productivity",
    "extra_labels": [],
    "slack_channel": "g_engineering_productivity",
    "product_managers": [],
    "engineering_managers": [
      "dcroft"
    ],
    "fullstack_managers": [],
    "backend_engineering_managers": [],
    "frontend_engineering_managers": [],
    "technical_writers": [],
    "support_engineers": [],
    "backend_engineers": [],
    "frontend_engineers": [],
    "product_design_managers": [],
    "software_engineers_in_test": [],
    "product_designers": [],
    "triage_ops_config": {
      "ignore_templates": [
        "policies/template/group/merge-requests-needing-attention.yml.erb",
        "policies/template/group/bug-prioritization.yml.erb"
      ]
    }
  },
  "quality": {
    "name": "Quality",
    "section": null,
    "stage": "unlisted_stage",
    "categories": [],
    "label": "Quality",
    "extra_labels": [],
    "slack_channel": "",
    "product_managers": [],
    "engineering_managers": [],
    "fullstack_managers": [],
    "backend_engineering_managers": [],
    "frontend_engineering_managers": [],
    "technical_writers": [],
    "support_engineers": [],
    "backend_engineers": [],
    "frontend_engineers": [],
    "product_design_managers": [],
    "software_engineers_in_test": [],
    "product_designers": [],
    "triage_ops_config": {
      "default_labeling": {
        "projects": [
          11229385
        ]
      },
      "ignore_templates": [
        "policies/template/group/merge-requests-needing-attention.yml.erb",
        "policies/template/group/team-summary.yml.erb",
        "policies/template/group/bug-prioritization.yml.erb"
      ]
    }
  },
  "contributor_success": {
    "name": "Contributor Success",
    "section": null,
    "stage": "unlisted_stage",
    "categories": [],
    "label": "Contributor Success",
    "extra_labels": [],
    "slack_channel": "contributor-success",
    "product_managers": [],
    "engineering_managers": [
      "nick_vh"
    ],
    "fullstack_managers": [],
    "backend_engineering_managers": [],
    "frontend_engineering_managers": [],
    "technical_writers": [],
    "support_engineers": [],
    "backend_engineers": [
      "daniel-murphy",
      "leetickett-gitlab",
      "nick_vh",
      "stingrayza"
    ],
    "frontend_engineers": [],
    "product_design_managers": [],
    "software_engineers_in_test": [],
    "product_designers": [],
    "triage_ops_config": {
      "ignore_templates": [
        "policies/template/group/merge-requests-needing-attention.yml.erb",
        "policies/template/group/team-summary.yml.erb",
        "policies/template/group/bug-prioritization.yml.erb"
      ]
    }
  },
  "ux_paper_cuts": {
    "name": "UX Paper Cuts",
    "section": null,
    "stage": "unlisted_stage",
    "categories": [],
    "label": "group::ux paper cuts",
    "extra_labels": [],
    "slack_channel": "g_ux_paper_cuts",
    "product_managers": [],
    "engineering_managers": [
      "seggenberger",
      "annabeldunstone"
    ],
    "fullstack_managers": [],
    "backend_engineering_managers": [],
    "frontend_engineering_managers": [],
    "technical_writers": [],
    "support_engineers": [],
    "backend_engineers": [],
    "frontend_engineers": [],
    "product_design_managers": [],
    "software_engineers_in_test": [],
    "product_designers": [],
    "triage_ops_config": null
  },
  "infrastructure": {
    "name": "Infrastructure",
    "section": null,
    "stage": "unlisted_stage",
    "categories": [],
    "label": "infrastructure",
    "extra_labels": [],
    "slack_channel": "infrastructure-lounge",
    "product_managers": [],
    "engineering_managers": [],
    "fullstack_managers": [],
    "backend_engineering_managers": [],
    "frontend_engineering_managers": [],
    "technical_writers": [],
    "support_engineers": [],
    "backend_engineers": [],
    "frontend_engineers": [],
    "product_design_managers": [],
    "software_engineers_in_test": [],
    "product_designers": [],
    "triage_ops_config": {
      "ignore_templates": [
        "policies/template/group/merge-requests-needing-attention.yml.erb",
        "policies/template/group/team-summary.yml.erb",
        "policies/template/group/bug-prioritization.yml.erb"
      ]
    }
  },
  "technical_writing": {
    "name": "Technical Writing",
    "section": null,
    "stage": "unlisted_stage",
    "categories": [],
    "label": "Technical Writing",
    "extra_labels": [],
    "slack_channel": "tw-team",
    "product_managers": [],
    "engineering_managers": [],
    "fullstack_managers": [],
    "backend_engineering_managers": [],
    "frontend_engineering_managers": [],
    "technical_writers": [],
    "support_engineers": [],
    "backend_engineers": [],
    "frontend_engineers": [],
    "product_design_managers": [],
    "software_engineers_in_test": [],
    "product_designers": [],
    "triage_ops_config": {
      "ignore_templates": [
        "policies/template/group/merge-requests-needing-attention.yml.erb",
        "policies/template/group/team-summary.yml.erb",
        "policies/template/group/bug-prioritization.yml.erb"
      ]
    }
  },
  "engineering_analytics": {
    "name": "Engineering Analytics",
    "section": null,
    "stage": "unlisted_stage",
    "categories": [],
    "label": "Engineering Analytics",
    "extra_labels": [],
    "slack_channel": "g_engineering_analytics",
    "product_managers": [],
    "engineering_managers": [],
    "fullstack_managers": [],
    "backend_engineering_managers": [],
    "frontend_engineering_managers": [],
    "technical_writers": [],
    "support_engineers": [],
    "backend_engineers": [],
    "frontend_engineers": [],
    "product_design_managers": [],
    "software_engineers_in_test": [],
    "product_designers": [],
    "triage_ops_config": {
      "ignore_templates": [
        "policies/template/group/merge-requests-needing-attention.yml.erb",
        "policies/template/group/team-summary.yml.erb",
        "policies/template/group/bug-prioritization.yml.erb"
      ]
    }
  },
  "gitaly_cluster": {
    "name": "Gitaly::Cluster",
    "section": "core_platform",
    "stage": "systems",
    "categories": [
      "gitaly"
    ],
    "label": "group::gitaly::cluster",
    "extra_labels": [
      "group::gitaly"
    ],
    "slack_channel": "g_gitaly",
    "product_managers": [
      "mjwood"
    ],
    "engineering_managers": [],
    "fullstack_managers": [],
    "backend_engineering_managers": [
      "andrashorvath"
    ],
    "frontend_engineering_managers": [],
    "technical_writers": [
      "eread"
    ],
    "support_engineers": [
      "gerardo",
      "dwainaina"
    ],
    "backend_engineers": [
      "ahmadsherif",
      "andrashorvath",
      "echui-gitlab",
      "jamesliu-gitlab",
      "justintobler",
      "pks-gitlab",
      "qmnguyen0711",
      "samihiltunen",
      "wchandler"
    ],
    "frontend_engineers": [],
    "product_design_managers": [],
    "software_engineers_in_test": [
      "john.mcdonnell"
    ],
    "product_designers": [],
    "triage_ops_config": null
  },
  "gitaly_git": {
    "name": "Gitaly::Git",
    "section": "core_platform",
    "stage": "systems",
    "categories": [
      "gitaly"
    ],
    "label": "group::gitaly::git",
    "extra_labels": [
      "group::gitaly"
    ],
    "slack_channel": "g_gitaly",
    "product_managers": [
      "mjwood"
    ],
    "engineering_managers": [],
    "fullstack_managers": [],
    "backend_engineering_managers": [
      "jcaigitlab"
    ],
    "frontend_engineering_managers": [],
    "technical_writers": [
      "eread"
    ],
    "support_engineers": [
      "gerardo"
    ],
    "backend_engineers": [
      "chriscool",
      "eric.p.ju",
      "f_santos",
      "proglottis",
      "jcaigitlab",
      "knayakgl",
      "pks-gitlab",
      "toon"
    ],
    "frontend_engineers": [],
    "product_design_managers": [],
    "software_engineers_in_test": [],
    "product_designers": [],
    "triage_ops_config": {
      "default_labeling": {
        "projects": [
          2009901
        ]
      }
    }
  },
  "threat_insights": {
    "name": "Threat Insights",
    "section": "sec",
    "stage": "govern",
    "categories": [
      "vulnerability_management",
      "dependency_management",
      "sbom"
    ],
    "label": "group::threat insights",
    "extra_labels": [],
    "slack_channel": "g_govern_threat_insights",
    "product_managers": [
      "abellucci"
    ],
    "engineering_managers": [],
    "fullstack_managers": [
      "nmccorrison",
      "kniechajewicz"
    ],
    "backend_engineering_managers": [],
    "frontend_engineering_managers": [],
    "technical_writers": [
      "rdickenson"
    ],
    "support_engineers": [
      "gerardo"
    ],
    "backend_engineers": [
      "bala.kumar",
      "bwill",
      "ghavenga",
      "mallocke",
      "minac",
      "Quintasan",
      "subashis",
      "wandering_person",
      "zmartins"
    ],
    "frontend_engineers": [
      "dpisek",
      "lorenzvanherwaarden",
      "sming-gitlab",
      "svedova"
    ],
    "product_design_managers": [],
    "software_engineers_in_test": [],
    "product_designers": [],
    "triage_ops_config": null
  },
  "pipeline_security": {
    "name": "Pipeline Security",
    "section": "ci",
    "stage": "stage_with_two_groups",
    "categories": [
      "build_artifacts",
      "secrets_management"
    ],
    "label": "group::pipeline security",
    "extra_labels": [],
    "slack_channel": "g_pipeline-security",
    "product_managers": [
      "jocelynjane"
    ],
    "engineering_managers": [
      "shampton"
    ],
    "fullstack_managers": [],
    "backend_engineering_managers": [],
    "frontend_engineering_managers": [],
    "technical_writers": [
      "marcel.amirault"
    ],
    "support_engineers": [
      "manuelgrabowski"
    ],
    "backend_engineers": [
      "dbiryukov",
      "iamricecake",
      "morefice",
      "srajadas"
    ],
    "frontend_engineers": [
      "mfluharty",
      "mgandres"
    ],
    "product_design_managers": [
      "rayana"
    ],
    "software_engineers_in_test": [],
    "product_designers": [
      "bonnie-tsang"
    ],
    "triage_ops_config": null
  }
}
